命名規則
////////////////////////////////////////////////////////////////////////////////
共通ルール
名前はすべて英語にする
名前を見るだけで、意味が分かるようにする（ただし、一時的に使う変数は例外）



クラス名・構造体名
頭文字は大文字
単語の区切りも大文字
（例）「Player」「GameObject」



関数名
頭文字は大文字
単語の区切りも大文字
基本的に動詞（＋目的語）
（例）「AddScore」「IsButtonDown」「SetPosition」

＜参考資料＞関数名によく使われる英単語（動詞）の意味とニュアンス
https://php-archive.net/php/words-in-function-names/ 



変数名
頭文字は小文字
単語の区切りは大文字
基本的に名詞
クラスのメンバ変数は後ろにアンダースコアを付ける。「○○_」

（例）「position」「highScore」


定数名
全て大文字
単語の区切りはアンダースコア

（例）「SCREEN_WIDTH」「JUMP_POWER」
/////////////////////////////////////////////////////////////////////////////////

コメント
/////////////////////////////////////////////////////////////////////////////////
関数の説明はメンバ関数の上に使い方と引数と戻り値の意味を書く
例
//関数の内容
//引数
//戻り値
void 関数名(int 変数名);

メンバ変数は横にコメント書く	

自作関数以外はコメント書く
/////////////////////////////////////////////////////////////////////////////////


その他ルール
//////////////////////////////////////////////////////////////////////////////////
クラス型の変数を作るときは基本的にポインタにする

基本型以外のデータを引数で受け取る場合は参照（＆）を使う

関数の中で値を変更しない引数はconstを付ける

インスタンスを1つしか作らない場合はクラスではなく名前空間にする

コンストラクタではメンバ変数の初期化のみを行う←必ず！

関数をオーバーライドするときは、宣言の後ろに「override」を付ける

警告が無いようにする

失敗する可能性がある処理には、必ずassertを使う

クラスの.hにインクルードは書かない。クラスのプロトタイプ宣言を使うこと！

インクルードの順番は、標準インクルードファイルを書いてから自作インクルードファイルを書くこと！
////////////////////////////////////////////////////////////////////////////////////