https://reiji1020.gitbooks.io/play-opencv/content/usevs.html
セットアップ

https://qiita.com/mine820/items/32fea085350b57e3f9bf

https://www.google.com/search?q=C%2B%2B+%E7%94%BB%E5%83%8F%E3%81%AE%E3%82%B5%E3%82%A4%E3%82%BA%E3%82%92%E5%A4%89%E6%9B%B4&rlz=1C1GCEU_jaJP850JP850&oq=c&aqs=chrome.2.69i59l3j69i60l3.3280j0j7&sourceid=chrome&ie=UTF-8